[
    {
        "type": "info",
        "time": 0,
        "description": "Рады приветствовать любителей футбола на матче группового этапа Лиги Европы между командами \"Маккаби\" Тель-Авив и \"Зенит\" Санкт-Петербург. Разного уровня соперники встретятся в предстоящем поединке, однако более квалифицированным гостям придется приложить немало усилий, чтобы добиться максимального результата. Последними результатами в чемпионате команда Луческу порадовала, получится ли продолжить и на европейском уровне? Сайт http:\/\/www.soccer.ru проведёт прямую текстовую онлайн трансляцию матча, следить за событиями на поле и комментировать игру для вас будет Старчеус Сергей.",
        "details": []
    },
    {
        "type": "info",
        "time": 0,
        "description": "\"Маккаби\" Тель-Авив, заняв в местном чемпионате 2-е место, вынужден был пройти весь путь от первого раунда квалификации до группового турнира, и лёгким он не был, несмотря на то, что первое поражение команда потерпела лишь в стадии плей-офф в выездной встрече с \"Хайдуком\" 1:2. В чемпионате Израиля, который не так давно стартовал, \"Маккаби\" сыграл три поединка - разница мячей в них составила 7:4, забивала и пропускала команда в каждом из них. В предстоящем поединке на поле не выйдет Эйтан Тиби.",
        "details": []
    },
    {
        "type": "info",
        "time": 0,
        "description": "\"Зенит\", оказавшийся по итогам прошлого сезона на 3-й позиции в российской Премьер-лиге, получил возможность начать свой путь на международной арене с группового турнира Лиги Европы. Команда непросто втягивалась в сезон. Новому тренерскому штабу во главе с Мирчей Луческу понадобилось время для того чтобы футболисты обрели нужные кондиции. Поначалу яркой игры не получилось по ряду объективных причин - здесь и смена тренера, и уезд Халка, а также травмы Данни и Дзюбы. Но в последних играх все вроде стало на свои места, \"Амкар\" и \"Арсенал\" получили восемь голов на двоих, отлично в команду влился Жулиано, выздоровел Дзюба. Наставник сине-бело-голубых решил не рисковать здоровьем Дзюбы и Шатова, оставив их дома. Продолжает лечение Данни.",
        "details": []
    },
    {
        "type": "info",
        "time": 0,
        "description": "\"Зенит\", выступавший в последние годы в Лиге чемпионов, является фаворитом группы. \"Маккаби\" Тель-Авив по подбору исполнителей не может сравниться со своим соперникам, и шансов на успех даже в родных стенах у жёлтых дьяволов немного. Классом россияне однозначно выше, да и оборона \"Маккаби\" видится слишком уж уступчивой, пропуская большое количество мячей даже в слабом по составу местном чемпионате. Сегодня вполне можно рассчитывать на довольно интересный поединок.",
        "details": []
    },
    {
        "type": "startPeriod",
        "time": 1,
        "description": "Первый тайм матча начался! С центра поля разыграли футболисты \"Зенита\".",
        "details": {
            "dateTime":"15.09.2016 20:00:00",
            "tournament": "Лига Европы 2016/2017, 1 тур",
            "stadium": {
                "country": "Израиль",
                "city": "Нетанья",
                "stadium": "Нетанья Стэдиум"
            },
            "team1": {
                "title": "Маккаби",
                "country": "Израиль",
                "logo": "https://www.soccer.ru/sites/default/files/styles/new_desine_match_header/public/logos/big/1669_0.jpg?itok=ZpeeTUZu",
                "players": [
                    {
                        "number": 95,
                        "name": "Райкович Предраг",
                        "position": "В"
                    },
                    {
                        "number": 20,
                        "name": "Бен Харуш Омри",
                        "position": "З"
                    },
                    {
                        "number": 21,
                        "name": "Филипенко Егор",
                        "position": "З"
                    },
                    {
                        "number": 26,
                        "name": "Бен-Хаим Таль",
                        "position": "З"
                    },
                    {
                        "number": 2,
                        "name": "Даса Эли",
                        "position": "З"
                    },
                    {
                        "number": 40,
                        "name": "Игьебор Носа",
                        "position": "П"
                    },
                    {
                        "number": 6,
                        "name": "Альберман Гал",
                        "position": "П"
                    },
                    {
                        "number": 4,
                        "name": "Медуньянин Харис",
                        "position": "П"
                    },
                    {
                        "number": 11,
                        "name": "Бен-Хаим II Таль",
                        "position": "Н"
                    },
                    {
                        "number": 42,
                        "name": "Перец Дор",
                        "position": "Н"
                    },
                    {
                        "number": 51,
                        "name": "Бенаюн Йосси",
                        "position": "П"
                    },
                    {
                        "number": 15,
                        "name": "Мича Дор",
                        "position": "П"
                    },
                    {
                        "number": 24,
                        "name": "Кьяртассон Видар",
                        "position": "Н"
                    },
                    {
                        "number": 9,
                        "name": "Бен-Басат Эден",
                        "position": "Н"
                    },
                    {
                        "number": 1,
                        "name": "Лифшитц Даниэль",
                        "position": "В"
                    },
                    {
                        "number": 5,
                        "name": "Скарионе Эсекьель",
                        "position": "П"
                    },
                    {
                        "number": 23,
                        "name": "Голаса Эйял",
                        "position": "П"
                    },
                    {
                        "number": 10,
                        "name": "Ицхаки Барак",
                        "position": "Н"
                    }
                ],
                "startPlayerNumbers": [
                    95,
                    20,
                    21,
                    26,
                    2,
                    40,
                    6,
                    4,
                    11,
                    51,
                    24
                ],
                "coach": "Арвеладзе Шота"
            },
            "team2": {
                "title": "Зенит",
                "country": "Россия",
                "logo": "https://www.soccer.ru/sites/default/files/styles/new_desine_user_profile_webp/public/logos/big/screenshot_2_0.png?itok=R-W_jjq2",
                "players": [
                    {
                        "number": 1,
                        "name": "Лодыгин Юрий",
                        "position": "В"
                    },
                    {
                        "number": 4,
                        "name": "Кришито Доменико",
                        "position": "З"
                    },
                    {
                        "number": 21,
                        "name": "Гарсия Хавьер",
                        "position": "П"
                    },
                    {
                        "number": 8,
                        "name": "Маурисио",
                        "position": "П"
                    },
                    {
                        "number": 13,
                        "name": "Нету",
                        "position": "З"
                    },
                    {
                        "number": 19,
                        "name": "Смольников Игорь",
                        "position": "З"
                    },
                    {
                        "number": 81,
                        "name": "Жирков Юрий",
                        "position": "П"
                    },
                    {
                        "number": 3,
                        "name": "Новосельцев Иван",
                        "position": "З"
                    },
                    {
                        "number": 7,
                        "name": "Жулиано",
                        "position": "П"
                    },
                    {
                        "number": 28,
                        "name": "Витсель Аксель",
                        "position": "П"
                    },
                    {
                        "number": 9,
                        "name": "Кокорин Александр",
                        "position": "Н"
                    },
                    {
                        "number": 11,
                        "name": "Кержаков Александр",
                        "position": "Н"
                    },
                    {
                        "number": 77,
                        "name": "Джорджевич Лука",
                        "position": "Н"
                    },
                    {
                        "number": 29,
                        "name": "Мак Роберт",
                        "position": "П"
                    },
                    {
                        "number": 41,
                        "name": "Кержаков Михаил",
                        "position": "В"
                    },
                    {
                        "number": 6,
                        "name": "Ломбертс Николас",
                        "position": "З"
                    },
                    {
                        "number": 14,
                        "name": "Юсупов Артур",
                        "position": "П"
                    },
                    {
                        "number": 48,
                        "name": "Гасилин Алексей",
                        "position": "Н"
                    }
                ],
                "startPlayerNumbers": [
                    1,
                    4,
                    21,
                    13,
                    19,
                    81,
                    7,
                    28,
                    9,
                    11,
                    29
                ],
                "coach": "Луческу Мирча"
            }
        }
    },
    {
        "type": "info",
        "time": 2,
        "description": "Хозяева будут играть в жёлтой форме, футболисты \"Зенита\" вышли на игру в сине-голубой амуниции.",
        "details": []
    },
    {
        "type": "info",
        "time": 3,
        "description": "Гости вышли в атаку, но поспешил Роберт Мак, лайнсмен поднимает флажок, офсайд.",
        "details": []
    },
    {
        "type": "info",
        "time": 4,
        "description": "Бен Харуш пробил по воротам с угла штрафной, его удар был заблокирован, угловой подадут хозяева.",
        "details": []
    },
    {
        "type": "info",
        "time": 5,
        "description": "После подачи с углового ничего опасного у ворот Юрия Лодыгина создать не удалось.",
        "details": []
    },
    {
        "type": "info",
        "time": 6,
        "description": "\"Маккаби\" владеет мячом в центре поля, но перейти на чужую половину не удаётся, внимательно в обороне играет \"Зенит\".",
        "details": []
    },
    {
        "type": "info",
        "time": 7,
        "description": "Сбивают Александра Кержакова на половине поля \"Маккаби\", судья назначает штрафной и обходится без карточки.",
        "details": []
    },
    {
        "type": "info",
        "time": 8,
        "description": "Жулиано навешивал в штрафную площадь, здорово выпрыгнул Витсель и пробил головой по воротам, вратарь на месте.",
        "details": []
    },
    {
        "type": "info",
        "time": 9,
        "description": "Жулиано не понял Кержакова, помешали друг другу зенитовцы и не смогли пробить по воротам соперника.",
        "details": []
    },
    {
        "type": "info",
        "time": 10,
        "description": "\"Зенит\" уверенно контролирует ситуацию на поле, хорошо ходит мяч у сине-бело-голубых.",
        "details": []
    },
    {
        "type": "info",
        "time": 11,
        "description": "Практически всем составом клуб из Петербурга на половине поля \"Маккаби\".",
        "details": []
    },
    {
        "type": "info",
        "time": 12,
        "description": "Витсель пробил низом по центру ворот из-за пределов штрафной, мяч был лёгким для вратаря.",
        "details": []
    },
    {
        "type": "info",
        "time": 13,
        "description": "В центре поля нарушают правила гости, \"Маккаби\" разыграет мяч.",
        "details": []
    },
    {
        "type": "dangerousMoment",
        "time": 14,
        "description": "Опасно у ворот \"Зенита\"! Бен-Хаим II пробивал низом в дальний угол ворот, Лодыгин не дотянулся до мяча и тот ударившись о штрангу вылетел в поле!",
        "details": {
            "team": "Маккаби"
        }
    },
    {
        "type": "info",
        "time": 15,
        "description": "Пытаются организовать свою атаку зенитовцы, растягиваются по всей ширине поля.",
        "details": []
    },
    {
        "type": "info",
        "time": 16,
        "description": "Кришито блестяще забирает мяч у соперника в подкате и начинает атаку своей команды.",
        "details": []
    },
    {
        "type": "info",
        "time": 17,
        "description": "Здорово ворвался в чужую штрафную Смольников, последовала на него передача, но Игорь до мяча не дотянулся, отбились хозяева.",
        "details": []
    },
    {
        "type": "yellowCard",
        "time": 18,
        "description": "Непонятно зачем в центре поля Кокорин играл в грубом подкате, но тем не менее этот фол на жёлтую карточку.",
        "details": {
            "team": "Зенит",
            "playerNumber": 9
        }
    },
    {
        "type": "info",
        "time": 19,
        "description": "Свивают Хави Гарсия в центре поля, лежит игрок на газоне, судья назначает штрафной.",
        "details": []
    },
    {
        "type": "info",
        "time": 20,
        "description": "Очень медленно играют команды, практически стоят в центре поля, Витсель начинает движения вперёд.",
        "details": []
    },
    {
        "type": "info",
        "time": 21,
        "description": "Очередной офсайд, в этот раз попался Юрий Жирков, хорошо выдерживают линию хозяева.",
        "details": []
    },
    {
        "type": "info",
        "time": 22,
        "description": "\"Зенит\" пытается вскрыть оборону соперника то справа, то слева, но пока не удаётся.",
        "details": []
    },
    {
        "type": "info",
        "time": 23,
        "description": "Здорово Бен-Хаим подставил корпус и не пустил к мячу Юрия Жиркова, мяч вышел за линию поля, от ворот.",
        "details": []
    },
    {
        "type": "goal",
        "time": 24,
        "description": "ГОООООООЛ! Медуньяин Харис открывает счёт в матче! 1:0!",
        "details": {
            "team": "Маккаби",
            "playerNumber": 4,
            "assistantNumber": 11
        }
    },
    {
        "type": "dangerousMoment",
        "time": 25,
        "description": "Грубейшая ошибка \"Зенита\" привела к пропущенному мячу! При большом территориальном преимуществе гости пропускают первыми в матче. 1:0!",
        "details": {
            "team": "Маккаби"
        }
    },
    {
        "type": "info",
        "time": 26,
        "description": "Понеслись гости сразу в атаку, комбинируют у чужой штрафной, но теряют мяч.",
        "details": []
    },
    {
        "type": "info",
        "time": 27,
        "description": "Кержаков пробивал по чужим воротам из-за линии штрафной площади, вратарь ловит мяч.",
        "details": []
    },
    {
        "type": "info",
        "time": 28,
        "description": "Пытаются создать опасный момент игроки \"Зенита\", но на подступах к штрафной теряют мяч.",
        "details": []
    },
    {
        "type": "info",
        "time": 29,
        "description": "\"Маккаби\" контролирует мяч на своей половине поля и не спешит с ним расставаться, отыгрывают назад, на вратаря.",
        "details": []
    },
    {
        "type": "info",
        "time": 30,
        "description": "Пол часа в матче сыграно, \"Маккаби\" забил не вытекающий из логики гол и ведёт в счёте.",
        "details": []
    },
    {
        "type": "info",
        "time": 31,
        "description": "Мак прорывался в атаку, но был сбит соперником в середине поля, фол назначает арбитр.",
        "details": []
    },
    {
        "type": "info",
        "time": 32,
        "description": "Гости привычно контролируют мяч на чужой половине поля, но впереди всё перекрыто.",
        "details": []
    },
    {
        "type": "info",
        "time": 33,
        "description": "Футболисты \"Зенита\" обращают внимание судьи на то, что мяч попал в руку защитнику \"Маккаби\", но судья оставил этот момент без внимания.",
        "details": []
    },
    {
        "type": "info",
        "time": 34,
        "description": "Угловой подавали гости, но нанести удар по воротам не вышло, от ворот выбьет Райкович.",
        "details": []
    },
    {
        "type": "dangerousMoment",
        "time": 35,
        "description": "Медуньяин подобрал подбор около штрафной \"Зенита\" и в касание пробил мощно по воротам Лодыгина, мяч пролетает рядом со штангой.",
        "details": {
            "team": "Маккаби"
        }
    },
    {
        "type": "info",
        "time": 36,
        "description": "Жулиано отдавал вперёд на ход Кокорину, но Александр на этот мяч не пошёл.",
        "details": []
    },
    {
        "type": "info",
        "time": 37,
        "description": "Плотно играют в обороне хозяева и при первой возможности сразу идут вперёд.",
        "details": []
    },
    {
        "type": "info",
        "time": 38,
        "description": "Серия потерь пошла в центре поля у обеих команд, надо отметить, что большие скорости демонстрируют и те, и другие.",
        "details": []
    },
    {
        "type": "info",
        "time": 39,
        "description": "Кришито хорошо отрабатывает в защите и не даёт сопернику добраться до мяча.",
        "details": []
    },
    {
        "type": "info",
        "time": 40,
        "description": "Хороший отрезок матча проводят футболисты \"Маккаби\", умело контролируют мяч.",
        "details": []
    },
    {
        "type": "info",
        "time": 41,
        "description": "Мирча Луческу весь первый тайм на ногах, ему явно не нравится как проходит первый тайм.",
        "details": []
    },
    {
        "type": "info",
        "time": 42,
        "description": "Кришито решил взять игру на себя, пошёл вперёд и сделал навес в штрафную, чуть чуть не достал мяч Кержаков Александр.",
        "details": []
    },
    {
        "type": "info",
        "time": 43,
        "description": "Юрий Жирков нарушает правила в центре поля ведя борьбу за мяч с соперником, арбитр был рядом и разглядел нарушение правил.",
        "details": []
    },
    {
        "type": "info",
        "time": 44,
        "description": "Нарушают гости правила около своей штрафной, \"Маккаби\" пробьёт опасный штрафной.",
        "details": []
    },
    {
        "type": "dangerousMoment",
        "time": 45,
        "description": "Опасно пробивает Медуньяин со штрафного в ближний угол, мяч проходит мимо штанги в считанных сантиметрах!",
        "details": {
            "team": "Маккаби"
        }
    },
    {
        "type": "finishPeriod",
        "time": 46,
        "description": "На этом первый тайм матча завершён, уходим на перерыв!",
        "details": []
    },
    {
        "type": "startPeriod",
        "time": 46,
        "description": "Второй тайм матча начался! Без замен обошлись наставники обоих команд в перерыве матча.",
        "details": []
    },
    {
        "type": "info",
        "time": 47,
        "description": "Александр Кокорин пробивал по воротам находясь за пределами штрафной, защитник заблокировал удар.",
        "details": []
    },
    {
        "type": "goal",
        "time": 48,
        "description": "ГОООООООЛ! Кьяртассон Видар забивает второй гол в ворота \"Зенита\"! 2:0!",
        "details": {
            "team": "Маккаби",
            "playerNumber": 24,
            "assistantNumber": 11
        }
    },
    {
        "type": "dangerousMoment",
        "time": 49,
        "description": "Сходит с ума от счастья стадион, \"Маккаби\" повёл в счёте со счётом 2:0! Таль Бен-Хаим навесил с правого фланга в штрафную, Кьяртанссон нанёс удар головой по воротам и не сумел достать мяч Лодыгин!",
        "details": {
            "team": "Маккаби"
        }
    },
    {
        "type": "info",
        "time": 50,
        "description": "Судейская бригада арбитров разглядела офсайд, забежал за линию защитников Александр Кержаков.",
        "details": []
    },
    {
        "type": "info",
        "time": 51,
        "description": "Левым флангом гости мчали в атаку, оборона выбивает мяч в аут, \"Зенит\" продолжает атаковать.",
        "details": []
    },
    {
        "type": "info",
        "time": 52,
        "description": "Нету пробил по воротам издали, мяч пролетел над перекладиной и улетел на трибуну.",
        "details": []
    },
    {
        "type": "info",
        "time": 53,
        "description": "Хозяева вышли в атаку и заработали угловой на левом фланге.",
        "details": []
    },
    {
        "type": "info",
        "time": 54,
        "description": "Решили разыграть хозяева мяч с угла поля, но гости вытеснили соперника подальше от штрафной.",
        "details": []
    },
    {
        "type": "yellowCard",
        "time": 55,
        "description": "Выпускает пар Хави Гарсия, спорит с арбитрам и получает жёлтую карточку.",
        "details": {
            "team": "Зенит",
            "playerNumber": 21
        }
    },
    {
        "type": "dangerousMoment",
        "time": 56,
        "description": "Кокорин вошёл в штрафную, и находясь в выгодной позиции не стал бить а начал обыгрывать вратаря и потерял мяч...",
        "details": {
            "team": "Зенит"
        }
    },
    {
        "type": "info",
        "time": 57,
        "description": "Аксель Витсель выстрелил в сторону ворот \"Маккаби\", удар получился мощным, но неточным.",
        "details": []
    },
    {
        "type": "info",
        "time": 58,
        "description": "Бенаюн высоко прессингует Игоря Смольникова, защитнику гостей приходится отыгрывать назад на Лодыгина.",
        "details": []
    },
    {
        "type": "yellowCard",
        "time": 59,
        "description": "Грубо в подкате играет Аксель Витсель, жёлтая карточка.",
        "details": {
            "team": "Зенит",
            "playerNumber": 28
        }
    },
    {
        "type": "info",
        "time": 60,
        "description": "Замена в составе \"Зенита\", вместо Кержакова Александра на поле выходит Лука Джорджевич.",
        "details": {
            "team": "Зенит",
            "inPlayerNumber": 77,
            "outPlayerNumber": 11
        }
    },
    {
        "type": "info",
        "time": 61,
        "description": "Левым флангом атаковали гости, Лука Джорджевич вёл борьбу с защитником и упустил мяч за лицевую, от ворот.",
        "details": []
    },
    {
        "type": "info",
        "time": 62,
        "description": "Вратарь хозяев начинает потягивать время, не спеша вводит мяч в игру, футболисты \"Зенита\" апеллируют к арбитру.",
        "details": []
    },
    {
        "type": "info",
        "time": 63,
        "description": "Нету забрасывает вперёд на Мака, не прошла передача, защитник первый на мяче.",
        "details": []
    },
    {
        "type": "info",
        "time": 64,
        "description": "Кокорин попробовал один в один обыграть защитника, но не смог и потерял мяч.",
        "details": []
    },
    {
        "type": "info",
        "time": 65,
        "description": "Доминируют на поле гости, но до опасного момента дело не доходит, не могут пробить по воротам зенитовцы.",
        "details": []
    },
    {
        "type": "info",
        "time": 66,
        "description": "Жулиано пошёл на двоих соперников и потерял мяч, \"Маккаби\" выходят в контратаку.",
        "details": []
    },
    {
        "type": "info",
        "time": 67,
        "description": "Смольников отдал вперёд на Джорджевича, но Лука жёстко обрабатывал мяч и далеко отпустил его.",
        "details": []
    },
    {
        "type": "info",
        "time": 68,
        "description": "Без центра поля играют команды, гости всем составом кроме вратаря на чужой половине поля.",
        "details": []
    },
    {
        "type": "info",
        "time": 69,
        "description": "Штрафной зарабатывает \"Маккаби\" на углу штрафной площади, Кокорин был не прав в эпизоде.",
        "details": []
    },
    {
        "type": "goal",
        "time": 70,
        "description": "ГОООООООЛ! Харис Медуньяин забивает третий мяч в ворота \"Зенита\"! 3:0!",
        "details": {
            "team": "Маккаби",
            "playerNumber": 4,
            "assistantNumber": null
        }
    },
    {
        "type": "dangerousMoment",
        "time": 71,
        "description": "Безупречно выполнен удар со штрафного в исполнении Медуньянина, мяч обогнув стенку влетел в самую \"паутину\" ворот Лодыгина! 3:0!",
        "details": {
            "team": "Маккаби"
        }
    },
    {
        "type": "info",
        "time": 72,
        "description": "Невероятно, кто бы мог подумать что так безвольно отдаст игру питерский \"Зенит\", речь уже идёт о престиже клуба.",
        "details": []
    },
    {
        "type": "replacePlayer",
        "time": 73,
        "description": "Вторая замена в составе гостей, вместо Хави Гарсия играть будет Маурисио.",
        "details": {
            "team": "Зенит",
            "inPlayerNumber": 8,
            "outPlayerNumber": 21
        }
    },
    {
        "type": "replacePlayer",
        "time": 74,
        "description": "Замена у \"Маккаби\", уходит с поля Кьяртассон, вместо него играть будет Эден Бен-Басат.",
        "details": {
            "team": "Маккаби",
            "inPlayerNumber": 9,
            "outPlayerNumber": 24
        }
    },
    {
        "type": "info",
        "time": 75,
        "description": "Ничего не выходит у сине-бело-голубых в атаке, всё читается и перехватывается обороной.",
        "details": []
    },
    {
        "type": "goal",
        "time": 76,
        "description": "ГОООООООЛ! Александр Кокорин отыгрывает один мяч, 3:1!",
        "details": {
            "team": "Зенит",
            "playerNumber": 9,
            "assistantNumber": 7
        }
    },
    {
        "type": "dangerousMoment",
        "time": 77,
        "description": "Жулиано сделал заброс на дальнюю штангу, там совсем один находился Кокорин, который в пустые ворота внёс мяч и сократил отставание в счёте, 3:1!",
        "details": {
            "team": "Зенит"
        }
    },
    {
        "type": "yellowCard",
        "time": 78,
        "description": "За споры с арбитром жёлтую карточку получает Райкович.",
        "details": {
            "team": "Маккаби",
            "playerNumber": 95
        }
    },
    {
        "type": "info",
        "time": 79,
        "description": "Момент был у \"Зенита\", но Джорджевич не сумел замкнуть передачу на дальней штанге, мяч от его ноги полетел выше ворот.",
        "details": []
    },
    {
        "type": "info",
        "time": 80,
        "description": "Пошли последние десять минут матча, сумеет ли \"Зенит\" сделать камбэк?",
        "details": []
    },
    {
        "type": "replacePlayer",
        "time": 81,
        "description": "Замена в составе \"Маккаби\", вместо Бенаюна на поле вышел Мича Дор.",
        "details": {
            "team": "Маккаби",
            "inPlayerNumber": 15,
            "outPlayerNumber": 51
        }
    },
    {
        "type": "yellowCard",
        "time": 81,
        "description": "Эли Даса получает жёлтую карточку, грубо было сыграно.",
        "details": {
            "team": "Маккаби",
            "playerNumber": 2
        }
    },
    {
        "type": "yellowCard",
        "time": 82,
        "description": "Спустя минуту нарушает правила Даса и получает вторую жёлтую карточку, это удаление! \"Маккаби\" остаётся вдесятером!",
        "details": {
            "team": "Маккаби",
            "playerNumber": 2
        }
    },
    {
        "type": "dangerousMoment",
        "time": 83,
        "description": "Опасный свободный будет пробивать \"Зенит\"! До ворот 7-мь метров!",
        "details": {
            "team": "Зенит"
        }
    },
    {
        "type": "yellowCard",
        "time": 83,
        "description": "Страсти кипят на поле, судья достаёт жёлтую карточку, предупреждён Дор Мича.",
        "details": {
            "team": "Маккаби",
            "playerNumber": 15
        }
    },
    {
        "type": "goal",
        "time": 84,
        "description": "ГОООООООЛ! Маурисио сокращает счёт в матче! 3:2!",
        "details": {
            "team": "Зенит",
            "playerNumber": 8,
            "assistantNumber": 7
        }
    },
    {
        "type": "dangerousMoment",
        "time": 85,
        "description": "Интрига в матче возвращается! Настоящий камбэк в исполнении питерского \"Зенита\"! Маурисио забивает второй мяч в ворота \"Маккаби\" после розыгрыша свободного.",
        "details": {
            "team": "Зенит"
        }
    },
    {
        "type": "replacePlayer",
        "time": 85,
        "description": "Последняя замена в матче, уходит Бен-Хаим Таль II.",
        "details": {
            "team": "Маккаби",
            "inPlayerNumber": 42,
            "outPlayerNumber": 11
        }
    },
    {
        "type": "goal",
        "time": 86,
        "description": "ГОООООООЛ! Жулиано сравнивает счёт в матче! 3:3!",
        "details": {
            "team": "Зенит",
            "playerNumber": 7,
            "assistantNumber": 29
        }
    },
    {
        "type": "yellowCard",
        "time": 86,
        "description": "Ещё у одного игрока не выдержали нервы, судья показывает \"горчичник\" Медуньянину.",
        "details": {
            "team": "Маккаби",
            "playerNumber": 4
        }
    },
    {
        "type": "dangerousMoment",
        "time": 87,
        "description": "Невероятно! \"Зенит\" сумел вернуться в игру проигрывая 0:3! Жулиано был расторопнее всех в чужой штрафной и поразил пустые ворота Райковича! 3:3!",
        "details": {
            "team": "Зенит"
        }
    },
    {
        "type": "dangerousMoment",
        "time": 88,
        "description": "Пошли дожимать соперника сине-бело-голубые, футболисты \"Маккаби\" мечтают об окончании матча, совсем не осталось сил обороняться.",
        "details": {
            "team": "Зенит"
        }
    },
    {
        "type": "info",
        "time": 89,
        "description": "6 минут добавляет главный арбитр встречи к основному времени матча!",
        "details": []
    },
    {
        "type": "info",
        "time": 90,
        "description": "Матч получился эмоциональным как для тех, так и для других, сил практически не осталось.",
        "details": []
    },
    {
        "type": "goal",
        "time": 91,
        "description": "ГОООООООЛ! Лука Джорджевич забивает ещё один гол и выводит \"Зенит\" вперёд! 3:4!",
        "details": {
            "team": "Зенит",
            "playerNumber": 77,
            "assistantNumber": 7
        }
    },
    {
        "type": "dangerousMoment",
        "time": 92,
        "description": "С фланга подал Жулиано в штрафную площадь, там Лука Джорджевич в падении головой замкнул подачу отправив мяч в ворота \"Маккаби\", 3:4!",
        "details": {
            "team": "Зенит"
        }
    },
    {
        "type": "replacePlayer",
        "time": 93,
        "description": "Тактическая замена от Мирчи Луческу, вместо Жиркова на поле вышел Новосельцев.",
        "details": {
            "team": "Зенит",
            "inPlayerNumber": 3,
            "outPlayerNumber": 81
        }
    },
    {
        "type": "dangerousMoment",
        "time": 94,
        "description": "Джорджевич загубил момент, мог отдать на свободного партнёра, но решил доиграть эпизод до конца и не смог переиграть вратаря!",
        "details": {
            "team": "Зенит"
        }
    },
    {
        "type": "info",
        "time": 95,
        "description": "Не спеша разыгрывает угловой \"Зенит\", футболисты в синих майках держат мяч у самого угла поля.",
        "details": []
    },
    {
        "type": "finishPeriod",
        "time": 96,
        "description": "Финальный свисток даёт судья, матч завершён!",
        "details": []
    },
    {
        "type": "info",
        "time": 97,
        "description": "Чудеса всё-таки бывают, именно так можно охарактеризовать матч который выдали \"Маккаби2\" Тель-Авив и \"Зенит\" из Санкт-Петербурга. Проигрывая в три мяча команда Луческу собралась и менее чем за 20-ть минут смогла не только сравнять счёт, но и выйти вперёд, победив в драматической встрече со счётом 3:4! Хозяева показали хорошую игру при игре на контратаках, но на весь матч их не хватило. \"Зенит\" добывает тяжелеёшую победу в Израиле и зарабатывает свои первые три очка в группе.",
        "details": []
    }
]